{
  "LuaSnip": { "branch": "master", "commit": "0df29db3543837f8b41597f2640397c5ec792b7b" },
  "bufdelete.nvim": { "branch": "master", "commit": "f6bcea78afb3060b198125256f897040538bcb81" },
  "bufferline.nvim": { "branch": "main", "commit": "b15c6daf5a64426c69732b31a951f4e438cb6590" },
  "cmp-buffer": { "branch": "main", "commit": "3022dbc9166796b644a841a02de8dd1cc1d311fa" },
  "cmp-nvim-lsp": { "branch": "main", "commit": "5af77f54de1b16c34b23cba810150689a3a90312" },
  "cmp-nvim-lua": { "branch": "main", "commit": "f12408bdb54c39c23e67cab726264c10db33ada8" },
  "cmp-path": { "branch": "main", "commit": "91ff86cd9c29299a64f968ebb45846c485725f23" },
  "cmp_luasnip": { "branch": "master", "commit": "05a9ab28b53f71d1aece421ef32fee2cb857a843" },
  "copilot.vim": { "branch": "release", "commit": "57a0115908895f465eb3476f03a0aaa7096e8fe1" },
  "dashboard-nvim": { "branch": "master", "commit": "413442b12d85315fc626c44a0ce4929b213ef604" },
  "diffview.nvim": { "branch": "main", "commit": "3dc498c9777fe79156f3d32dddd483b8b3dbd95f" },
  "fcitx5.nvim": { "branch": "main", "commit": "b1f8b687767e87d920e3a45128b67ae9cc83544f" },
  "friendly-snippets": { "branch": "main", "commit": "dcd4a586439a1c81357d5b9d26319ae218cc9479" },
  "git-blame.nvim": { "branch": "master", "commit": "a0282d05adbee80aaf4e2ff35b81b52940b67bed" },
  "indent-blankline.nvim": { "branch": "master", "commit": "9637670896b68805430e2f72cf5d16be5b97a22a" },
  "lazy.nvim": { "branch": "main", "commit": "aedcd79811d491b60d0a6577a9c1701063c2a609" },
  "lsp-zero.nvim": { "branch": "v2.x", "commit": "9a686513eaaa13d737d0fec8956a18268ead8b29" },
  "lspkind.nvim": { "branch": "master", "commit": "1735dd5a5054c1fb7feaf8e8658dbab925f4f0cf" },
  "lualine-lsp-progress": { "branch": "master", "commit": "56842d097245a08d77912edf5f2a69ba29f275d7" },
  "lualine.nvim": { "branch": "master", "commit": "8b56462bfb746760465264de41b4907310f113ec" },
  "mason-lspconfig.nvim": { "branch": "main", "commit": "21d33d69a81f6351e5a5f49078b2e4f0075c8e73" },
  "mason.nvim": { "branch": "main", "commit": "3b5068f0fc565f337d67a2d315d935f574848ee7" },
  "nvim-autopairs": { "branch": "master", "commit": "c6139ca0d5ad7af129ea6c89cb4c56093f2c034a" },
  "nvim-cmp": { "branch": "main", "commit": "04e0ca376d6abdbfc8b52180f8ea236cbfddf782" },
  "nvim-highlight-colors": { "branch": "main", "commit": "9965384a16912bb6b8518241cf258a6dd28722d7" },
  "nvim-lspconfig": { "branch": "master", "commit": "7f5cf1121f772850a30bdaf83fb448e88846aa58" },
  "nvim-nu": { "branch": "main", "commit": "f45f36a97fb0ea6e39f08cc2fac7a2fb3dc3999b" },
  "nvim-treesitter": { "branch": "master", "commit": "212b7a504cf56f85d1acc5be237261b42d7560c5" },
  "nvim-ts-autotag": { "branch": "main", "commit": "531f48334c422222aebc888fd36e7d109cb354cd" },
  "nvim-web-devicons": { "branch": "master", "commit": "4adea17610d140a99c313e3f79a9dc01825d59ae" },
  "plenary.nvim": { "branch": "master", "commit": "4f71c0c4a196ceb656c824a70792f3df3ce6bb6d" },
  "telescope-file-browser.nvim": { "branch": "master", "commit": "48ffb8de688a22942940f50411d5928631368848" },
  "telescope.nvim": { "branch": "master", "commit": "54930e1abfc94409e1bb9266e752ef8379008592" },
  "toggleterm.nvim": { "branch": "main", "commit": "193786e0371e3286d3bc9aa0079da1cd41beaa62" }
}